<svg width="375" height="814" viewBox="0 0 375 814" fill="none" xmlns="http://www.w3.org/2000/svg">
<rect width="375" height="814" fill="url(#paint0_linear)"/>
<defs>
<linearGradient id="paint0_linear" x1="188" y1="-593.458" x2="248.882" y2="99.9941" gradientUnits="userSpaceOnUse">
<stop stop-color="#74BFF4" stop-opacity="0.3"/>
<stop offset="0.177083" stop-color="#BDE0F9" stop-opacity="0.69375"/>
<stop offset="1" stop-color="#F6FAFD"/>
</linearGradient>
</defs>
</svg>
