<svg width="343" height="80" viewBox="0 0 343 80" fill="none" xmlns="http://www.w3.org/2000/svg">
<mask id="mask0" mask-type="alpha" maskUnits="userSpaceOnUse" x="0" y="0" width="343" height="80">
<rect width="343" height="80" rx="5" fill="#FFAEA6"/>
</mask>
<g mask="url(#mask0)">
<g clip-path="url(#clip0)">
<path d="M288.439 27.3014C288.359 26.9793 288.281 26.6542 288.197 26.3321C288.155 26.1635 288.104 25.9979 288.05 25.8354C287.997 25.6224 287.802 25.4766 287.583 25.4862C287.326 25.4862 287.071 25.5253 286.817 25.5434C286.681 25.5613 286.544 25.5674 286.407 25.5614C286.306 25.5553 286.21 25.5149 286.134 25.447C285.868 25.146 285.613 24.845 285.365 24.5138C285.281 24.3943 285.262 24.2409 285.314 24.1044C285.404 23.8034 285.505 23.5023 285.592 23.2013C285.633 23.0852 285.655 22.9632 285.658 22.8401C285.658 22.749 285.622 22.6616 285.559 22.5962C285.119 22.251 284.629 21.9739 284.107 21.7744C283.95 21.7074 283.768 21.7557 283.664 21.8918C283.449 22.1417 283.224 22.3855 283.014 22.6414C282.874 22.8396 282.632 22.9373 282.395 22.8912C282.062 22.8371 281.727 22.8039 281.395 22.7588C281.265 22.7456 281.152 22.6659 281.095 22.5481C280.991 22.3614 280.895 22.1688 280.796 21.9791C280.697 21.7895 280.622 21.654 280.53 21.4944C280.446 21.3288 280.258 21.2456 280.08 21.2958C279.604 21.4162 279.125 21.5396 278.652 21.6781C278.463 21.7296 278.337 21.9092 278.353 22.1055C278.353 22.3674 278.392 22.6263 278.41 22.8882C278.41 23.0086 278.428 23.1321 278.428 23.2555C278.433 23.4158 278.362 23.5691 278.236 23.6679C277.973 23.8786 277.706 24.0864 277.449 24.3061C277.298 24.4442 277.083 24.486 276.892 24.4145C276.569 24.3121 276.245 24.2038 275.922 24.1134C275.703 24.0152 275.446 24.1116 275.344 24.3302C275.12 24.7095 274.904 25.0948 274.694 25.4832C274.617 25.5877 274.586 25.7193 274.607 25.8477C274.629 25.976 274.701 26.0901 274.808 26.1635C274.967 26.314 275.14 26.4465 275.305 26.591C275.421 26.6973 275.535 26.8057 275.646 26.9161C275.739 27.0105 275.785 27.1423 275.769 27.2743C275.733 27.6235 275.697 27.9727 275.652 28.3189C275.629 28.5106 275.509 28.6768 275.335 28.7584C275.134 28.8548 274.934 28.9481 274.736 29.0595C274.612 29.1195 274.491 29.1868 274.374 29.2611C274.202 29.3553 274.12 29.5576 274.176 29.7458C274.293 30.1793 274.416 30.6128 274.539 31.0433C274.561 31.1094 274.59 31.173 274.626 31.2329C274.692 31.3765 274.84 31.4631 274.997 31.4497L275.913 31.3744H275.982C276.245 31.3263 276.51 31.446 276.649 31.6754C276.802 31.8922 276.979 32.0909 277.143 32.2986C277.302 32.4841 277.345 32.7429 277.254 32.9699C277.155 33.2709 277.06 33.5449 276.973 33.8339C276.919 33.9442 276.914 34.072 276.958 34.1863C277.003 34.3007 277.093 34.3912 277.206 34.4359C277.595 34.6677 277.994 34.8905 278.404 35.1042C278.588 35.2254 278.833 35.1834 278.967 35.0079C279.143 34.8183 279.311 34.6166 279.479 34.4058C279.841 33.9784 279.925 33.9453 280.479 34.0205L281.125 34.1138C281.336 34.134 281.52 34.2645 281.61 34.457C281.724 34.6888 281.832 34.9236 281.952 35.1524C282.016 35.2698 282.091 35.3807 282.176 35.4835C282.249 35.5934 282.386 35.6423 282.511 35.604L283.868 35.2247C283.929 35.2027 283.989 35.1745 284.044 35.1404C284.19 35.0762 284.278 34.9258 284.263 34.7671C284.239 34.466 284.215 34.165 284.194 33.864C284.194 33.7737 284.194 33.6803 284.194 33.587C284.189 33.434 284.258 33.2882 284.38 33.1957C284.637 32.997 284.892 32.7953 285.146 32.5936C285.294 32.4698 285.497 32.4374 285.676 32.5093C285.96 32.6087 286.248 32.696 286.535 32.7893H286.568C286.945 32.8916 287.074 32.8525 287.272 32.5123C287.469 32.1722 287.694 31.7477 287.889 31.3564C287.951 31.2674 287.975 31.1565 287.954 31.0494C287.933 30.9424 287.869 30.8487 287.778 30.7904C287.562 30.5917 287.338 30.3991 287.104 30.2184C286.868 30.0596 286.75 29.7734 286.805 29.4929C286.853 29.1919 286.886 28.8668 286.931 28.5537C286.946 28.4246 287.025 28.3118 287.14 28.2527C287.416 28.1082 287.691 27.9667 287.963 27.8192C288.154 27.7457 288.313 27.6058 288.41 27.4248L288.439 27.3014ZM278.359 28.2045C278.425 27.4094 278.805 26.6738 279.413 26.1615C280.021 25.6493 280.808 25.4028 281.598 25.4771C283.206 25.6647 284.38 27.0937 284.26 28.7163C284.114 30.3461 282.691 31.5542 281.068 31.4256C280.281 31.3654 279.551 30.9889 279.043 30.3812C278.535 29.7735 278.292 28.9857 278.368 28.1955L278.359 28.2045Z" fill="white"/>
<path d="M282.621 35.6176C282.665 35.6176 282.709 35.6114 282.751 35.5995L283.072 35.5119L284.125 35.2098C284.187 35.1875 284.248 35.1602 284.306 35.1283C284.518 35.0383 284.65 34.8233 284.633 34.5936L284.599 34.1919L284.563 33.6844C284.559 33.5969 284.559 33.5091 284.563 33.4216C284.557 33.3137 284.604 33.2096 284.69 33.1437C284.941 32.9534 285.186 32.7571 285.434 32.5637L285.467 32.5366C285.577 32.4443 285.729 32.4209 285.861 32.4761C286.06 32.5456 286.263 32.6091 286.466 32.6755L286.735 32.7601H286.774C287.228 32.8839 287.424 32.8054 287.654 32.4127C287.884 32.02 288.12 31.57 288.283 31.2467C288.448 30.9994 288.383 30.6658 288.138 30.4976C287.881 30.265 287.66 30.0808 287.449 29.9146C287.257 29.7864 287.162 29.5544 287.21 29.3286C287.24 29.1353 287.267 28.936 287.291 28.7245L287.337 28.3711C287.344 28.2862 287.394 28.2109 287.47 28.1717L287.803 27.9996C287.969 27.912 288.138 27.8274 288.305 27.7368C288.528 27.6484 288.712 27.482 288.822 27.2686C288.825 27.2526 288.825 27.2362 288.822 27.2202V27.1054C288.825 27.0895 288.825 27.0731 288.822 27.0571L288.761 26.8064L288.58 26.0814C288.535 25.9123 288.483 25.7431 288.429 25.574C288.358 25.3002 288.107 25.1119 287.824 25.1209C287.648 25.1209 287.476 25.139 287.303 25.1571L287.043 25.1783H286.934C286.841 25.1871 286.747 25.1871 286.653 25.1783C286.589 25.1739 286.527 25.1519 286.475 25.1148C286.19 24.7916 285.924 24.4624 285.706 24.1845C285.65 24.1037 285.64 23.9998 285.679 23.9096C285.719 23.7767 285.761 23.6438 285.806 23.5079C285.852 23.3719 285.912 23.1726 285.961 23.0034C286.006 22.8732 286.031 22.7366 286.033 22.5986C286.034 22.4604 285.976 22.3283 285.873 22.2362C285.416 21.8759 284.906 21.5894 284.36 21.3874C284.145 21.3029 283.899 21.3691 283.755 21.5505L283.526 21.8103C283.38 21.9734 283.223 22.1335 283.096 22.3026C282.99 22.4605 282.799 22.5392 282.612 22.502C282.391 22.4657 282.174 22.4385 281.953 22.4114L281.596 22.3661C281.517 22.3554 281.45 22.3052 281.417 22.2331L281.236 21.8888L281.067 21.5867C280.994 21.4508 280.921 21.3119 280.84 21.182C280.724 20.9633 280.475 20.8512 280.235 20.9101C279.651 21.0581 279.206 21.1759 278.789 21.2967C278.536 21.3712 278.369 21.611 278.387 21.8737C278.387 22.0519 278.405 22.2301 278.423 22.4023C278.423 22.4899 278.438 22.5775 278.447 22.6651C278.456 22.7527 278.462 22.9037 278.462 23.0246C278.47 23.1416 278.419 23.2547 278.326 23.3266L278.139 23.4746C277.933 23.6377 277.727 23.8009 277.534 23.97C277.42 24.0739 277.257 24.1044 277.113 24.0486L276.635 23.8975L276.133 23.7374C275.84 23.6264 275.51 23.7575 275.374 24.0395C275.144 24.4261 274.923 24.8158 274.715 25.1994C274.519 25.4788 274.584 25.863 274.86 26.0633C274.957 26.1539 275.056 26.2385 275.162 26.3231L275.368 26.4983C275.483 26.598 275.595 26.7067 275.704 26.8004C275.768 26.8622 275.799 26.9506 275.788 27.039L275.767 27.2323C275.737 27.5163 275.704 27.8002 275.667 28.0811C275.652 28.224 275.562 28.3481 275.431 28.4073L275.171 28.5312L274.823 28.6973C274.706 28.7577 274.572 28.8272 274.445 28.9088C274.214 29.0369 274.105 29.309 274.182 29.5612C274.299 29.9962 274.42 30.4312 274.545 30.8661C274.569 30.9367 274.601 31.0046 274.639 31.0685C274.736 31.2689 274.946 31.389 275.168 31.3706L276.094 31.2951C276.12 31.2975 276.146 31.2975 276.173 31.2951C276.382 31.2577 276.593 31.3539 276.702 31.5367C276.814 31.6938 276.935 31.8388 277.056 31.9838L277.207 32.168C277.334 32.3135 277.368 32.5181 277.295 32.6967C277.183 33.0199 277.089 33.3008 277.007 33.5726C276.941 33.7165 276.935 33.8813 276.992 34.0293C277.049 34.1772 277.164 34.2959 277.31 34.358C277.676 34.5725 278.069 34.793 278.52 35.0316C278.764 35.1883 279.088 35.1333 279.267 34.9047C279.415 34.7477 279.554 34.5846 279.693 34.4184L279.79 34.3067C280.123 33.914 280.159 33.9019 280.664 33.9714L281.321 34.065C281.484 34.0791 281.627 34.1794 281.696 34.3278L281.805 34.5543C281.879 34.7134 281.958 34.8705 282.04 35.0256C282.108 35.1537 282.189 35.2742 282.282 35.385C282.353 35.5111 282.478 35.5972 282.621 35.6176ZM285.697 32.156C285.544 32.1574 285.396 32.2106 285.277 32.307L285.244 32.3342C284.999 32.5275 284.751 32.7238 284.503 32.9141C284.345 33.0346 284.254 33.2231 284.258 33.4216C284.258 33.5183 284.258 33.6179 284.258 33.7237C284.258 33.8928 284.282 34.065 284.297 34.2342L284.327 34.6359C284.336 34.7353 284.278 34.8286 284.185 34.8655H284.158C284.119 34.8883 284.079 34.9075 284.037 34.9229L282.987 35.2249L282.67 35.3125C282.6 35.3328 282.526 35.3044 282.488 35.2431C282.408 35.1492 282.337 35.0481 282.276 34.941C282.198 34.79 282.122 34.6389 282.047 34.4818L281.935 34.2493C281.821 34.0117 281.592 33.8503 281.33 33.8233L280.676 33.7297C280.071 33.6451 279.929 33.6995 279.53 34.1677L279.433 34.2825C279.297 34.4426 279.161 34.6027 279.016 34.7537C278.975 34.8153 278.911 34.8577 278.839 34.8708C278.766 34.8839 278.691 34.8667 278.632 34.8232C278.187 34.5876 277.794 34.3671 277.422 34.1556C277.21 34.0318 277.183 33.9593 277.255 33.7146C277.328 33.4699 277.428 33.1739 277.537 32.8537C277.646 32.5767 277.594 32.262 277.401 32.0351L277.246 31.8479C277.128 31.7089 277.01 31.5669 276.908 31.4189C276.734 31.1427 276.41 30.9984 276.088 31.0534H276.024L275.117 31.1259C275.016 31.139 274.919 31.08 274.884 30.9839C274.853 30.9359 274.827 30.8841 274.808 30.8299C274.684 30.3949 274.563 29.963 274.445 29.528C274.402 29.403 274.459 29.265 274.578 29.2078C274.692 29.1366 274.809 29.072 274.929 29.0145L275.271 28.8484L275.531 28.7245C275.756 28.6226 275.91 28.4103 275.937 28.1657C275.976 27.8817 276.006 27.5948 276.036 27.3078L276.058 27.1175C276.08 26.9389 276.017 26.7601 275.888 26.6342C275.776 26.5194 275.658 26.4077 275.537 26.302L275.326 26.1207C275.229 26.0422 275.132 25.9606 275.041 25.873C274.851 25.6948 274.833 25.5981 274.954 25.3746C275.162 24.994 275.38 24.6074 275.607 24.2207C275.64 24.1456 275.702 24.0871 275.779 24.0586C275.856 24.0301 275.941 24.0341 276.015 24.0697L276.514 24.2298L276.998 24.3838C277.241 24.4689 277.511 24.4157 277.703 24.2449C277.9 24.0788 278.102 23.9187 278.308 23.7586L278.496 23.6075C278.659 23.4805 278.753 23.283 278.747 23.0759C278.747 22.949 278.747 22.8222 278.728 22.6953C278.71 22.5684 278.713 22.5141 278.704 22.4265C278.704 22.2513 278.674 22.0882 278.671 21.919C278.658 21.7943 278.733 21.6773 278.852 21.6381C279.267 21.5173 279.711 21.3995 280.289 21.2545C280.405 21.2213 280.527 21.2779 280.577 21.3874C280.652 21.5142 280.725 21.6471 280.794 21.7801L280.961 22.0821C281.021 22.1999 281.085 22.3147 281.148 22.4325C281.227 22.5879 281.378 22.6942 281.55 22.7164L281.91 22.7618C282.125 22.7889 282.343 22.8161 282.558 22.8494C282.851 22.9056 283.15 22.7879 283.326 22.5473C283.459 22.3842 283.601 22.2241 283.743 22.067C283.822 21.9794 283.901 21.8918 283.976 21.8012C284.041 21.7119 284.16 21.6803 284.261 21.7257C284.772 21.9249 285.25 22.1999 285.679 22.5413C285.704 22.5788 285.718 22.6229 285.719 22.6681C285.714 22.7762 285.694 22.8831 285.658 22.9853C285.61 23.1504 285.558 23.3166 285.504 23.4837L285.377 23.8885C285.312 24.0736 285.341 24.2786 285.455 24.4382C285.679 24.7191 285.945 25.0423 286.236 25.3807C286.338 25.478 286.47 25.5367 286.611 25.5468C286.725 25.5574 286.839 25.5574 286.953 25.5468H287.052L287.319 25.5226C287.485 25.5226 287.651 25.4924 287.818 25.4894C287.97 25.4846 288.106 25.5862 288.144 25.7341C288.196 25.8972 288.247 26.0603 288.29 26.2234C288.353 26.4651 288.411 26.7037 288.471 26.9423L288.525 27.1719V27.2353C288.437 27.3723 288.308 27.478 288.156 27.5374L287.654 27.8002L287.322 27.9724C287.155 28.054 287.041 28.2143 287.019 28.3983L286.974 28.7577C286.947 28.9511 286.922 29.1444 286.892 29.3377C286.829 29.6719 286.967 30.0121 287.246 30.2076C287.452 30.3677 287.666 30.549 287.918 30.7785C288.072 30.9175 288.087 30.987 287.996 31.1652C287.833 31.4672 287.615 31.9022 287.373 32.3161C287.216 32.5909 287.158 32.6181 286.835 32.5245L286.532 32.4278L285.927 32.2345C285.852 32.1956 285.772 32.1691 285.688 32.156H285.697ZM281.496 31.425C283.123 31.4186 284.477 30.1741 284.618 28.5554C284.69 27.7245 284.425 26.8994 283.883 26.2657C283.073 25.2815 281.745 24.888 280.528 25.2714C279.312 25.6549 278.451 26.7384 278.353 28.0086C278.262 28.8087 278.499 29.6116 279.01 30.2348C279.553 30.9195 280.358 31.3465 281.23 31.4129C281.315 31.4211 281.401 31.4251 281.487 31.425H281.496ZM281.517 25.432H281.765C282.503 25.5148 283.18 25.881 283.653 26.453C284.395 27.3263 284.536 28.5601 284.012 29.5786C283.487 30.5971 282.4 31.1995 281.257 31.1048C280.467 31.0436 279.739 30.6574 279.246 30.0385C278.783 29.4805 278.565 28.7595 278.641 28.0388C278.759 26.5507 280.013 25.4098 281.508 25.432H281.517Z" fill="#D1D3D4"/>
<path d="M323.947 10.438C323.947 10.438 331.332 10.0689 332.824 14.9654V24.7673C332.824 24.7673 327.084 20.2249 323.947 21.74V10.438Z" fill="#D1D3D4"/>
<path d="M333.059 24.7649C333.081 24.769 333.104 24.769 333.125 24.7649C333.177 24.7395 333.21 24.6868 333.21 24.6291V14.7552C333.211 14.7411 333.211 14.727 333.21 14.7129C331.685 9.73374 324.168 10.0446 324.092 10.0506C324.012 10.0538 323.948 10.1205 323.948 10.2015V21.5691C323.947 21.6221 323.975 21.6714 324.02 21.6989C324.065 21.7248 324.12 21.7248 324.165 21.6989C327.212 20.2263 332.905 24.6804 332.972 24.7166C332.994 24.7432 333.025 24.7605 333.059 24.7649ZM332.908 14.7793V24.3092C331.781 23.4673 327.146 20.2082 324.243 21.3398V10.3463C325.274 10.3252 331.552 10.4157 332.908 14.7793Z" fill="#231F20"/>
<path d="M290.02 17.9274C290.11 17.9274 294.229 29.4172 294.229 29.4172H283.058L280.72 17.4062L290.02 17.9274Z" fill="white"/>
<path d="M283.226 29.8045H294.463C294.511 29.8043 294.556 29.7809 294.584 29.7418C294.613 29.7023 294.621 29.6509 294.605 29.6045C290.485 18.0659 290.388 17.9316 290.243 17.9316L280.877 17.4064C280.831 17.4042 280.787 17.4229 280.756 17.4571C280.727 17.492 280.714 17.5375 280.72 17.5825L283.075 29.6821C283.087 29.7546 283.152 29.8069 283.226 29.8045ZM294.248 29.5061H283.351L281.056 17.7138L290.137 18.221C290.455 18.9431 292.707 25.1944 294.248 29.5061Z" fill="#231F20"/>
<path d="M292.143 25.9306C292.191 25.9313 292.237 25.9099 292.267 25.8727C292.298 25.8318 292.307 25.7784 292.291 25.7296L290.899 21.5995C290.882 21.543 290.832 21.5021 290.773 21.496L288.998 21.2828C288.947 21.2754 288.895 21.295 288.862 21.3346C288.828 21.374 288.817 21.4279 288.832 21.4777L290.122 25.7022C290.141 25.7634 290.197 25.8062 290.261 25.8088L292.134 25.9306H292.143ZM290.637 21.7853L291.928 25.6108L290.387 25.5133L289.195 21.6148L290.637 21.7853Z" fill="#D1D3D4"/>
<path d="M284.444 28.2553H290.219C290.266 28.2562 290.311 28.234 290.338 28.196C290.368 28.1593 290.377 28.1103 290.362 28.0657L287.539 18.6706C287.519 18.6121 287.466 18.5711 287.404 18.567L282.037 18.1819C281.99 18.1791 281.945 18.1989 281.915 18.2352C281.883 18.2705 281.871 18.3194 281.882 18.3655L284.291 28.1397C284.308 28.209 284.372 28.2572 284.444 28.2553ZM290.019 27.959H284.56L282.228 18.4811L287.282 18.8424L290.019 27.959Z" fill="#D1D3D4"/>
<path d="M298.475 24.6128C298.475 24.6128 297.204 23.555 296.616 23.0745C296.028 22.594 295.46 21.2754 294.928 21.2813C294.396 21.2871 295.348 22.8547 295.348 22.8547C295.348 22.8547 293.371 21.3516 292.756 21.3077C292.142 21.2637 291.796 22.2922 291.95 22.6115C292.103 22.9309 293.779 23.7103 294.399 24.3256C295.02 24.941 297.059 26.3181 297.059 26.3181" fill="white"/>
<path d="M296.905 26.7048C296.972 26.7059 297.032 26.6629 297.052 26.5993C297.072 26.5357 297.046 26.467 296.989 26.4309C296.968 26.4309 294.918 25.0349 294.3 24.4247C293.843 24.0369 293.346 23.6958 292.818 23.4067C292.459 23.2228 292.126 22.9936 291.826 22.7251C291.78 22.4333 291.854 22.1352 292.032 21.8976C292.119 21.7197 292.3 21.6048 292.501 21.5999C292.93 21.6297 294.273 22.5375 295.072 23.1388C295.128 23.1848 295.209 23.1848 295.265 23.1388C295.32 23.0914 295.332 23.0119 295.293 22.9513C294.927 22.356 294.657 21.6981 294.73 21.5791C294.984 21.5791 295.335 22.0583 295.637 22.4721C295.847 22.7982 296.095 23.0981 296.378 23.365C296.983 23.8532 298.278 24.9277 298.278 24.9277L298.475 24.7015C298.475 24.7015 297.171 23.624 296.572 23.1358C296.31 22.8868 296.08 22.608 295.885 22.3054C295.51 21.7785 295.153 21.2814 294.751 21.2814C294.639 21.2777 294.535 21.3349 294.479 21.4302C294.358 21.6505 294.521 22.1 294.718 22.5018C294.055 22.0345 293 21.338 292.537 21.3112C292.232 21.3053 291.948 21.464 291.796 21.7249C291.554 22.047 291.47 22.458 291.566 22.8471C291.66 23.0376 292.029 23.2668 292.673 23.6538C293.175 23.9348 293.647 24.2638 294.083 24.636C294.721 25.2641 296.729 26.6214 296.805 26.678C296.834 26.6989 296.869 26.7085 296.905 26.7048Z" fill="#231F20"/>
<path d="M297.554 15.8564C296.92 15.4249 296.237 15.0638 295.519 14.78C294.695 14.5168 293.65 14.3384 293.886 13.9991C294.121 13.6598 296.078 14.1512 296.078 14.1512C296.078 14.1512 294.936 12.4576 294.296 12.1213C293.656 11.7849 292.738 11.8112 293.191 11.4895C293.644 11.1678 295.003 11.118 295.489 11.3549C295.975 11.5919 298.711 14.5051 298.85 14.6601C298.989 14.8151 297.554 15.8564 297.554 15.8564Z" fill="white"/>
<path d="M297.383 16.2439C297.416 16.2441 297.448 16.2336 297.474 16.2141C298.087 15.767 298.83 15.1769 298.858 14.9266C298.865 14.8728 298.848 14.8186 298.812 14.7776C298.784 14.7478 295.895 11.6423 295.36 11.3771C294.824 11.1118 293.392 11.1535 292.869 11.5261C292.81 11.5678 292.657 11.6781 292.688 11.8241C292.719 11.9701 292.939 12.0625 293.269 12.1489C293.526 12.2069 293.774 12.2939 294.01 12.4082C294.423 12.6258 295.124 13.5318 295.54 14.107C294.827 13.952 293.765 13.7821 293.542 14.107C293.481 14.1867 293.465 14.2906 293.499 14.3842C293.591 14.6345 294.004 14.7627 294.723 14.9802C294.907 15.0309 295.096 15.0845 295.277 15.1412C295.989 15.4281 296.666 15.7899 297.297 16.22C297.323 16.2358 297.352 16.244 297.383 16.2439ZM298.533 14.9236C298.183 15.2909 297.796 15.6224 297.377 15.9131C296.751 15.4869 296.077 15.132 295.369 14.8551C295.185 14.7984 294.992 14.7418 294.803 14.6911C294.439 14.5868 293.826 14.414 293.784 14.2948C293.903 14.1517 294.864 14.253 295.846 14.5004C295.907 14.5158 295.972 14.4933 296.009 14.4438C296.044 14.3924 296.044 14.3252 296.009 14.2739C295.96 14.2024 294.824 12.5125 294.148 12.1579C293.892 12.0292 293.622 11.9292 293.343 11.8599C293.239 11.833 293.104 11.7973 293.037 11.7675L293.052 11.7526C293.474 11.4545 294.797 11.4158 295.222 11.6274C295.647 11.839 298.114 14.4646 298.533 14.9236Z" fill="#231F20"/>
<path d="M311.499 18.675C311.499 18.675 304.342 19.6892 303.26 19.4183L299.026 14.6934L296.544 16.3035C296.544 16.3035 297.85 20.1858 299.64 22.4279C301.43 24.67 313.141 25.1545 313.141 25.1545L311.499 18.675Z" fill="#68E1FD"/>
<path d="M295.906 59.6387C295.906 59.6387 296.696 61.4058 296.516 62.1097C296.337 62.8135 293.278 67.486 292.835 66.9588C292.392 66.4317 293.061 61.8671 293.061 61.8671L295.906 59.6387Z" fill="#231F20"/>
<path d="M293.078 67.3873H293.161C294.03 67.178 296.75 62.9074 296.899 62.3311C297.088 61.585 296.35 59.9046 296.264 59.7257C296.245 59.6848 296.209 59.6548 296.166 59.6438C296.123 59.632 296.077 59.6409 296.041 59.6681L293.125 61.9126C293.094 61.9356 293.074 61.9707 293.069 62.0096C292.953 62.7952 292.398 66.7443 292.873 67.3024C292.926 67.3603 293.001 67.3914 293.078 67.3873ZM296.071 60.0017C296.317 60.5841 296.738 61.7457 296.614 62.2341C296.406 63.0378 293.579 67.0719 293.084 67.0719C292.823 66.7686 293.084 63.9902 293.357 62.0945L296.071 60.0017Z" fill="#231F20"/>
<path d="M294.533 56.1523L296.158 59.7754L293.291 61.9641L291.141 57.7258L294.533 56.1523Z" fill="white"/>
<path d="M293.094 61.9629C293.126 61.9621 293.157 61.9516 293.183 61.9328L296.098 59.7122C296.154 59.6695 296.173 59.5939 296.146 59.5291L294.494 55.8529C294.476 55.8168 294.445 55.7889 294.408 55.7749C294.372 55.7599 294.331 55.7599 294.295 55.7749L290.846 57.3714C290.809 57.3883 290.78 57.4197 290.766 57.4585C290.751 57.496 290.751 57.5379 290.766 57.5755L292.952 61.8758C292.971 61.9167 293.008 61.9457 293.052 61.9539L293.094 61.9629ZM295.825 59.5441L293.156 61.5847L291.119 57.5815L294.292 56.114L295.825 59.5441Z" fill="#231F20"/>
<path d="M303.175 35.2285C303.175 35.2285 290.823 38.3793 288.398 40.364C285.973 42.3487 287.836 56.6222 290.775 59.2504L295.396 56.8065C295.396 56.8065 292.932 45.871 293.836 44.9708C294.741 44.0706 304.933 42.7505 304.933 42.7505L311.598 35.2557L303.175 35.2285Z" fill="#231F20"/>
<path d="M290.548 59.2504C290.572 59.2504 290.596 59.2443 290.617 59.2325L295.255 56.8189C295.316 56.7881 295.348 56.7208 295.334 56.6549C294.384 52.511 293.108 45.709 293.726 45.1034C294.444 44.4023 301.947 43.3134 304.776 42.9524C304.812 42.9489 304.845 42.9318 304.869 42.9047L311.558 35.503C311.598 35.4603 311.609 35.3982 311.585 35.3449C311.561 35.2908 311.506 35.2559 311.447 35.2554L303.003 35.2285H302.963C302.457 35.3568 290.505 38.373 288.072 40.33C287.167 41.055 286.938 43.1553 286.902 44.7901C286.79 49.8081 288.349 57.356 290.454 59.2086C290.479 59.2338 290.512 59.2488 290.548 59.2504ZM295.014 56.6101L290.572 58.9252C288.563 57.0069 287.089 49.6947 287.197 44.805C287.245 42.5824 287.622 41.0759 288.256 40.5657C290.593 38.6832 302.469 35.6671 303.012 35.5269L311.112 35.5567L304.682 42.669C303.398 42.833 294.429 44.0115 293.524 44.8975C293.259 45.1571 293.008 46.0909 293.925 51.2043C294.356 53.6656 294.893 56.0701 295.014 56.6101Z" fill="#231F20"/>
<path d="M304.276 65.8379L304.648 69.2822L301.504 70.8747L300.789 66.1216L304.276 65.8379Z" fill="white"/>
<path d="M301.282 70.8703C301.304 70.8746 301.326 70.8746 301.347 70.8703L304.565 69.2499C304.621 69.2205 304.654 69.1574 304.648 69.0916L304.267 65.587C304.264 65.5463 304.245 65.5085 304.215 65.4827C304.185 65.4569 304.146 65.4452 304.107 65.4504L300.538 65.7391C300.497 65.7421 300.46 65.7636 300.435 65.7981C300.408 65.8316 300.397 65.8762 300.406 65.9192L301.147 70.7399C301.153 70.7881 301.182 70.8299 301.223 70.8517C301.241 70.8626 301.262 70.8689 301.282 70.8703ZM304.344 69.0078L301.392 70.4916L300.716 66.0247L303.983 65.7609L304.344 69.0078Z" fill="#231F20"/>
<path d="M315.07 38.3854C315.07 38.3854 303.933 46.6037 303.783 50.4451C303.634 54.2865 305.105 66.4243 305.105 66.4243L299.508 67.775C299.508 67.775 295.465 51.6453 296.823 47.5332C298.18 43.421 306.024 34.8418 306.024 34.8418L315.07 38.3854Z" fill="#231F20"/>
<path d="M299.673 67.7757H299.709L305.323 66.4155C305.397 66.399 305.446 66.3284 305.437 66.2526C305.437 66.132 303.961 54.0467 304.111 50.2525C304.255 46.5187 315.285 38.3603 315.396 38.2789C315.439 38.245 315.462 38.1916 315.456 38.1371C315.448 38.0827 315.411 38.0369 315.36 38.0165L306.271 34.4666C306.213 34.4425 306.147 34.457 306.106 34.5028C305.785 34.8557 298.203 43.1769 296.836 47.2817C295.468 51.3866 299.352 67.0006 299.535 67.6611C299.551 67.7257 299.607 67.7723 299.673 67.7757ZM305.134 66.1561L299.784 67.444C299.385 65.8304 295.849 51.2086 297.127 47.3782C298.404 43.5479 305.488 35.6398 306.268 34.7833L315.009 38.1974C313.396 39.4038 303.961 46.6182 303.82 50.2435C303.679 53.8688 304.975 64.817 305.134 66.1561Z" fill="#231F20"/>
<path d="M315.233 14.6614C315.669 14.6053 316.084 14.4405 316.443 14.1816C317.118 13.6775 317.466 12.8424 317.766 12.0558C318.002 11.522 318.135 10.9467 318.158 10.3613C318.137 9.3288 317.466 8.43902 316.776 7.68589C316.259 7.12105 315.67 6.40133 315.917 5.66947C315.991 5.5178 316.044 5.3563 316.074 5.18965C316.092 4.77361 315.545 4.53067 315.165 4.68858C314.802 4.89167 314.515 5.21213 314.35 5.59962C314.083 5.3137 313.971 4.91112 314.053 4.5246C314.086 4.36972 314.148 4.2027 314.071 4.06908C314.003 3.97776 313.904 3.91591 313.794 3.89598C312.714 3.65146 311.637 4.32144 311.354 5.41438C311.154 5.06714 311.11 4.64873 311.235 4.26647C309.38 4.92186 308.252 6.84155 308.559 8.82165C308.653 9.52842 308.833 10.2202 309.097 10.8806C309.226 11.1031 309.401 11.2947 309.609 11.4424C310.994 12.6237 311.618 14.1148 313.491 14.549C314.061 14.6915 314.65 14.7296 315.233 14.6614Z" fill="white"/>
<path d="M314.884 15.0817C315.073 15.0822 315.261 15.0699 315.449 15.0451C315.914 14.9859 316.358 14.8096 316.739 14.5323C317.445 14.0072 317.812 13.1495 318.128 12.3162C318.379 11.7625 318.52 11.164 318.543 10.5549C318.519 9.44993 317.803 8.52504 317.103 7.76498C316.546 7.15449 316.056 6.51042 316.267 5.89382C316.285 5.84498 316.303 5.7992 316.324 5.75341C316.385 5.63238 316.422 5.50089 316.435 5.36575C316.44 5.14705 316.333 4.94128 316.152 4.82241C315.906 4.6487 315.592 4.60769 315.311 4.71252C314.973 4.87994 314.697 5.15414 314.526 5.49395C314.387 5.2617 314.341 4.98435 314.396 4.71863L314.415 4.65147C314.477 4.48848 314.472 4.30666 314.399 4.14782C314.311 4.02064 314.177 3.93397 314.027 3.90667C313.463 3.76841 312.869 3.86752 312.379 4.18139C312.003 4.40832 311.702 4.74282 311.513 5.14292C311.461 4.92062 311.471 4.68796 311.543 4.47138C311.561 4.41611 311.547 4.35517 311.506 4.3143C311.465 4.27343 311.405 4.25976 311.35 4.27907C310.192 4.69846 309.266 5.60196 308.807 6.76072C308.526 7.47756 308.441 8.25778 308.56 9.01954C308.644 9.75183 308.821 10.47 309.086 11.1563C309.217 11.3869 309.394 11.5866 309.606 11.7423L309.643 11.7728C310.057 12.1394 310.447 12.5341 310.809 12.9542C311.576 13.8088 312.313 14.6177 313.633 14.926C314.043 15.0238 314.462 15.076 314.884 15.0817ZM315.614 4.95977C315.742 4.95965 315.866 4.99789 315.972 5.06966C316.069 5.13021 316.129 5.23774 316.128 5.35354C316.116 5.45071 316.087 5.54482 316.041 5.63131C316.02 5.68625 315.996 5.73815 315.978 5.79309C315.677 6.66915 316.459 7.51773 316.88 7.97254C317.542 8.68987 318.218 9.55982 318.239 10.561C318.217 11.1299 318.085 11.6887 317.851 12.2063C317.551 13.0305 317.205 13.8119 316.564 14.2881C316.223 14.5344 315.826 14.6907 315.41 14.7429C314.837 14.8095 314.258 14.7713 313.699 14.6299C312.457 14.343 311.762 13.5707 311.029 12.7496C310.656 12.3153 310.254 11.9073 309.826 11.5287L309.79 11.4981C309.612 11.3692 309.462 11.2052 309.348 11.0158C309.102 10.3548 308.935 9.66609 308.852 8.96459C308.742 8.2564 308.821 7.53133 309.08 6.8645C309.472 5.87927 310.227 5.08839 311.185 4.66063C311.141 5.0033 311.213 5.3509 311.39 5.64657C311.422 5.69867 311.482 5.72607 311.541 5.71606C311.601 5.70606 311.649 5.66062 311.663 5.60079C311.931 4.58813 312.937 3.96844 313.945 4.1936C314.019 4.20248 314.086 4.23833 314.135 4.29433C314.171 4.35538 314.135 4.45611 314.117 4.566L314.099 4.63926C314.001 5.07627 314.124 5.534 314.427 5.86024C314.458 5.8971 314.506 5.91451 314.553 5.90603C314.6 5.90183 314.643 5.87453 314.667 5.83277C314.817 5.47428 315.081 5.17677 315.416 4.98724C315.48 4.96563 315.547 4.95631 315.614 4.95977Z" fill="#231F20"/>
<path d="M308.951 11.5938C308.951 11.5938 307.885 13.4213 308.172 13.7596C308.46 14.0978 309.281 13.7908 309.281 13.7908" fill="white"/>
<path d="M308.424 14.3046C308.684 14.2963 308.94 14.2486 309.182 14.1635C309.264 14.1323 309.303 14.047 309.269 13.9723C309.254 13.9362 309.224 13.9072 309.185 13.8917C309.146 13.8762 309.102 13.8756 309.062 13.89C308.865 13.9606 308.259 14.1164 308.071 13.89C307.945 13.7429 308.337 12.7725 308.913 11.8109C308.935 11.7767 308.94 11.7361 308.928 11.6983C308.916 11.6605 308.887 11.6289 308.848 11.6109C308.77 11.5734 308.672 11.5994 308.628 11.6697C308.275 12.2578 307.482 13.6871 307.819 14.0723C307.969 14.2316 308.194 14.3176 308.424 14.3046Z" fill="#231F20"/>
<path d="M308.954 9.33012C308.245 10.0125 308.578 11.2975 308.656 12.1453C308.769 13.3387 308.91 14.5282 309.079 15.7137C309.186 16.467 311.164 16.3045 311.492 16.0593L311.534 18.5762C311.534 18.5762 312.129 19.9173 313.649 19.0517C315.168 18.1862 315.457 17.1287 315.457 17.1287L315.025 13.6902C315.025 13.6902 313.723 13.8113 312.818 12.3343C311.912 10.8573 311.736 8.49414 311.736 8.49414C311.736 8.49414 309.645 8.66252 308.954 9.33012Z" fill="white"/>
<path d="M312.512 19.7283C312.88 19.7139 313.239 19.6051 313.553 19.4125C315.132 18.5188 315.442 17.4404 315.454 17.3958C315.458 17.3772 315.458 17.3578 315.454 17.3392L315.018 13.8687C315.005 13.7907 314.935 13.735 314.855 13.7406C314.804 13.7406 313.616 13.83 312.749 12.4447C311.865 11.0059 311.685 8.65552 311.682 8.63169C311.678 8.59213 311.66 8.55543 311.629 8.5297C311.599 8.50398 311.559 8.49136 311.519 8.49465C311.432 8.49465 309.347 8.67041 308.616 9.38834C307.967 10.0109 308.108 11.0506 308.219 11.8877C308.24 12.0485 308.261 12.2064 308.276 12.3494C308.388 13.541 308.532 14.7624 308.7 15.9539C308.751 16.2124 308.944 16.4207 309.2 16.4931C309.831 16.685 310.505 16.6912 311.14 16.511L311.17 18.8227C311.167 18.8414 311.167 18.8605 311.17 18.8793C311.346 19.2466 311.658 19.5318 312.042 19.6747C312.195 19.7183 312.353 19.7364 312.512 19.7283ZM315.156 17.3451C315.099 17.506 314.738 18.4026 313.402 19.1563C313.044 19.4011 312.597 19.4824 312.175 19.3797C311.881 19.2708 311.638 19.0588 311.492 18.7839L311.459 16.2787C311.457 16.2223 311.423 16.1719 311.372 16.1476C311.324 16.1179 311.263 16.1179 311.215 16.1476C311.035 16.2906 309.934 16.4455 309.332 16.2012C309.143 16.1267 309.031 16.0225 309.031 15.9033C308.863 14.7117 308.731 13.5201 308.607 12.3107C308.607 12.1647 308.571 12.0128 308.55 11.84C308.448 11.0685 308.318 10.1122 308.851 9.59091C309.383 9.06959 310.936 8.86404 311.42 8.81042C311.474 9.36749 311.721 11.3038 312.518 12.6056C313.315 13.9074 314.359 14.0325 314.744 14.0444L315.156 17.3451Z" fill="#231F20"/>
<path d="M308.894 14.9331C308.894 14.9331 309.979 15.5377 310.438 14.3066Z" fill="white"/>
<path d="M309.515 15.0815C309.631 15.0821 309.746 15.0637 309.855 15.0272C310.122 14.9263 310.331 14.727 310.428 14.4785C310.456 14.4144 310.422 14.3417 310.352 14.3154C310.318 14.3033 310.281 14.3037 310.248 14.3167C310.215 14.3297 310.188 14.3541 310.175 14.3846C310.107 14.5687 309.956 14.7177 309.76 14.7949C309.537 14.8538 309.298 14.8362 309.089 14.7454C309.057 14.731 309.019 14.7288 308.985 14.7395C308.951 14.7501 308.923 14.7727 308.907 14.8023C308.875 14.8631 308.902 14.9361 308.967 14.9678C309.139 15.0402 309.326 15.0789 309.515 15.0815Z" fill="#231F20"/>
<path d="M311.211 12.226C311.219 11.9057 311.308 11.5942 311.468 11.3263C311.562 11.0983 311.687 10.887 311.839 10.6994C311.995 10.5166 312.216 10.4191 312.444 10.4329C312.644 10.4675 312.821 10.5955 312.929 10.784C313.037 10.9736 313.102 11.1884 313.12 11.411C313.234 12.3733 312.871 13.3291 312.17 13.9187L312.227 13.8372" fill="white"/>
<path d="M312.354 13.9043C312.386 13.9048 312.416 13.8947 312.441 13.8757C313.225 13.3018 313.63 12.3746 313.505 11.4402C313.479 11.2193 313.401 11.0068 313.277 10.8184C313.141 10.616 312.923 10.4768 312.675 10.4344C312.389 10.4127 312.108 10.5185 311.915 10.721C311.744 10.8975 311.603 11.0986 311.497 11.317C311.315 11.5851 311.216 11.8971 311.212 12.2167C311.221 12.2933 311.29 12.3505 311.371 12.3485C311.411 12.3463 311.448 12.3289 311.474 12.3003C311.5 12.2717 311.512 12.2343 311.509 12.1966C311.519 11.9308 311.607 11.6728 311.762 11.4516C311.855 11.2593 311.979 11.0816 312.128 10.9244C312.257 10.7855 312.445 10.7106 312.639 10.721C312.806 10.7492 312.952 10.8428 313.042 10.9788C313.141 11.1309 313.203 11.3023 313.223 11.4803C313.328 12.2917 312.988 13.0977 312.321 13.6121H312.306L312.243 13.6866C312.207 13.73 312.2 13.7893 312.226 13.8389C312.251 13.8885 312.305 13.9195 312.363 13.9187L312.354 13.9043Z" fill="#231F20"/>
<path d="M311.236 15.9397C311.236 15.9397 312.305 15.4973 312.753 14.6934C312.753 14.6934 312.849 16.6855 311.21 17.4055L311.236 15.9397Z" fill="#231F20"/>
<path d="M311.377 17.4024C311.399 17.4065 311.423 17.4065 311.446 17.4024C313.226 16.7253 313.14 14.8502 313.14 14.83C313.136 14.7653 313.083 14.711 313.011 14.6968C312.939 14.683 312.865 14.7111 312.828 14.7663C312.401 15.4347 311.35 15.8167 311.34 15.8196C311.278 15.8418 311.238 15.8943 311.237 15.9527L311.211 17.2693C311.211 17.3185 311.24 17.3643 311.287 17.3908C311.315 17.4027 311.346 17.4067 311.377 17.4024ZM312.772 15.2987C312.693 16.012 312.24 16.6531 311.546 17.0349L311.562 16.0511C312.014 15.8655 312.424 15.6107 312.772 15.2987Z" fill="#231F20"/>
<path d="M309.078 10.7903C309.018 10.5569 309.136 10.3244 309.343 10.271C309.549 10.2176 309.765 10.3635 309.825 10.5969C309.885 10.8303 309.766 11.0628 309.56 11.1162C309.353 11.1696 309.138 11.0237 309.078 10.7903Z" fill="#231F20"/>
<path d="M316.789 16.2441C316.789 16.2441 312.335 16.4529 310.547 18.8584C308.758 21.2639 307.319 30.4652 306.443 31.0704C305.566 31.6755 303.076 35.0826 303.106 35.255C303.136 35.4275 315.858 39.4911 315.858 39.4911C315.858 39.4911 316.605 36.541 318.008 32.7194C319.412 28.8979 320.499 16.5044 316.789 16.2441Z" fill="#68E1FD"/>
<path d="M305.184 32.5163C305.229 32.5152 305.272 32.4943 305.3 32.459C306.73 30.5296 307.708 28.2956 308.161 25.9262C308.809 22.2241 310.022 19.9752 310.034 19.954C310.074 19.8816 310.049 19.7899 309.977 19.749C309.943 19.7298 309.902 19.7253 309.864 19.7366C309.826 19.7479 309.794 19.7741 309.775 19.8093C309.775 19.8304 308.526 22.1186 307.869 25.8719C307.425 28.1918 306.468 30.3792 305.068 32.2691C305.017 32.3333 305.026 32.4275 305.089 32.4801C305.116 32.5029 305.149 32.5157 305.184 32.5163Z" fill="#231F20"/>
<path d="M313.289 20.0258C313.187 20.152 308.175 28.1634 308.175 28.1634L298.207 23.3571L295.772 26.1688C295.772 26.1688 304.172 32.531 307.449 33.6094C310.726 34.6878 318.241 22.9606 318.158 21.672C318.074 20.3833 314.728 18.2385 313.289 20.0258Z" fill="#68E1FD"/>
<path d="M308.154 28.2561C308.205 28.2564 308.253 28.231 308.281 28.1886C308.281 28.1886 312.667 21.2137 312.735 21.114C312.773 21.0462 312.752 20.96 312.686 20.9178C312.621 20.8757 312.533 20.8922 312.488 20.9555C312.432 21.0406 308.681 27.0002 308.113 27.904L302.933 25.2015C302.862 25.1648 302.774 25.1922 302.736 25.2631C302.718 25.2977 302.714 25.3382 302.725 25.3757C302.737 25.4132 302.763 25.4445 302.798 25.4626L308.09 28.2267C308.108 28.2417 308.131 28.2518 308.154 28.2561Z" fill="#231F20"/>
<path d="M307.542 33.6782C309.639 33.6782 311.892 31.9355 314.27 28.4827C314.293 28.4508 314.302 28.4112 314.294 28.3729C314.287 28.3346 314.264 28.3008 314.231 28.2793C314.162 28.234 314.069 28.251 314.022 28.3176C311.427 32.0859 309.01 33.7666 306.832 33.3125C304.654 32.8585 300.301 29.4793 300.259 29.4558C300.229 29.4309 300.189 29.4193 300.149 29.4238C300.11 29.4282 300.074 29.4483 300.05 29.4793C300.024 29.5096 300.013 29.5486 300.017 29.5875C300.022 29.6265 300.042 29.6619 300.074 29.6857C300.253 29.8273 304.507 33.1268 306.772 33.5986C307.025 33.6523 307.283 33.679 307.542 33.6782Z" fill="#231F20"/>
<path d="M311.23 18.1816L311.464 18.8935L310.887 19.6533C310.887 19.6533 312.035 25.5756 320.757 20.8497L323.561 21.8846L321.895 24.1788C321.895 24.1788 311.402 28.2616 310.586 19.734L310.438 18.7829L311.23 18.1816Z" fill="#231F20"/>
<path d="M316.932 25.5432C317.603 25.5397 318.272 25.486 318.936 25.3827C320.039 25.2102 321.124 24.9304 322.175 24.547C322.203 24.5382 322.226 24.52 322.241 24.4956L323.917 22.1732C323.946 22.1354 323.955 22.086 323.941 22.0404C323.927 21.9948 323.893 21.9587 323.849 21.9431L321.023 20.9107C320.985 20.8926 320.942 20.8926 320.904 20.9107C317.59 22.7273 314.996 23.1876 313.2 22.3246C312.217 21.8308 311.489 20.9326 311.199 19.857L311.735 19.1424C311.765 19.1029 311.774 19.0507 311.759 19.0032L311.524 18.2856C311.509 18.2399 311.474 18.2041 311.429 18.1887C311.383 18.1738 311.333 18.1828 311.295 18.2129L310.5 18.8185C310.455 18.8508 310.432 18.9057 310.44 18.9608L310.589 19.9236C310.794 22.1006 311.643 23.675 313.102 24.5955C314.246 25.3191 315.636 25.5432 316.932 25.5432ZM322.03 24.2806C321.523 24.4683 316.372 26.3032 313.26 24.3442C311.881 23.4782 311.08 21.9795 310.878 19.8933L310.741 19.0122L311.301 18.5883L311.447 19.0334L310.917 19.7389C310.89 19.7732 310.88 19.8176 310.89 19.86C311.172 21.0599 311.971 22.0671 313.063 22.6032C314.939 23.5115 317.602 23.0392 320.981 21.2165L323.557 22.1581L322.03 24.2806Z" fill="#231F20"/>
<path d="M304.741 69.3242C304.741 69.3242 305.515 72.3045 305.41 72.5638C305.305 72.8231 300.532 79.0073 300.084 77.0939C299.636 75.1806 301.568 70.88 301.568 70.88L304.741 69.3242Z" fill="#231F20"/>
<path d="M300.239 77.4614C301.641 77.4614 305.294 72.6836 305.404 72.4185C305.514 72.1534 305.028 70.1893 304.728 69.0475C304.719 69.0042 304.689 68.9683 304.648 68.9511C304.609 68.933 304.564 68.933 304.524 68.9511L301.294 70.5236C301.262 70.5379 301.237 70.5637 301.223 70.5959C301.14 70.7737 299.241 75.0122 299.703 76.9734C299.729 77.2338 299.935 77.4379 300.192 77.4584L300.239 77.4614ZM304.48 69.3006C304.829 70.6592 305.155 72.1172 305.117 72.3131C304.9 72.7318 301.264 77.2927 300.192 77.1601C300.118 77.1601 300.026 77.1119 299.978 76.9041C299.564 75.1508 301.244 71.2527 301.46 70.7707L304.48 69.3006Z" fill="#231F20"/>
<path d="M299.397 43.3664C299.444 43.367 299.488 43.3442 299.516 43.3055L303.839 37.8073C303.877 37.7647 303.887 37.7049 303.867 37.652C303.846 37.5992 303.798 37.5621 303.742 37.5557C303.686 37.5493 303.63 37.5746 303.599 37.6215L299.278 43.1197C299.226 43.1854 299.237 43.2806 299.302 43.3329C299.329 43.3542 299.363 43.366 299.397 43.3664Z" fill="white"/>
<path d="M283.42 29.4179L283.294 22.2645L280.718 10.8203L280.97 17.2984L283.42 29.4179Z" fill="white"/>
<path d="M283.279 29.8052H283.293C283.366 29.796 283.42 29.7301 283.42 29.6521L283.307 22.4655L280.998 10.9382C280.981 10.8632 280.914 10.8131 280.842 10.8212C280.769 10.8305 280.715 10.8987 280.718 10.9773L280.944 17.4854L283.138 29.6821C283.149 29.755 283.21 29.8077 283.279 29.8052ZM281.06 12.6944L283.034 22.5106L283.115 27.938L281.229 17.4614L281.06 12.6944Z" fill="#231F20"/>
<path d="M338.997 31.7394C338.948 31.6021 338.898 31.4473 338.846 31.3218C338.818 31.2517 338.791 31.1787 338.757 31.1086C338.724 31.017 338.627 30.9606 338.526 30.9742C338.406 30.9742 338.289 31.0093 338.172 31.0297C338.109 31.0416 338.046 31.0494 337.982 31.0531C337.934 31.0525 337.888 31.0382 337.849 31.0122C337.711 30.8895 337.582 30.761 337.452 30.6296C337.41 30.5797 337.395 30.5135 337.412 30.4515C337.443 30.3171 337.477 30.1799 337.508 30.0455C337.517 29.9914 337.517 29.9361 337.508 29.882C337.505 29.8421 337.485 29.8052 337.452 29.7798C337.232 29.6494 336.993 29.5509 336.742 29.4877C336.665 29.4651 336.582 29.4938 336.539 29.5578C336.45 29.6746 336.354 29.7885 336.268 29.9112C336.208 30.0012 336.1 30.0527 335.988 30.0455C335.831 30.0455 335.68 30.0455 335.517 30.0251C335.459 30.022 335.406 29.9913 335.376 29.9433C335.317 29.8645 335.265 29.7827 335.21 29.7038C335.154 29.625 335.117 29.5666 335.068 29.5023C335.024 29.4303 334.931 29.3994 334.85 29.4293L334.201 29.6513C334.116 29.6833 334.067 29.7677 334.084 29.8528C334.084 29.9667 334.121 30.0806 334.142 30.1945C334.142 30.247 334.142 30.2996 334.164 30.3551C334.173 30.426 334.145 30.4966 334.09 30.5449C333.976 30.6471 333.859 30.7493 333.748 30.8545C333.684 30.9197 333.587 30.9466 333.496 30.9246L333.028 30.8224C332.922 30.7892 332.808 30.8423 332.77 30.9421C332.681 31.1173 332.595 31.2955 332.511 31.4736C332.481 31.5224 332.473 31.5806 332.488 31.6354C332.503 31.6902 332.54 31.737 332.591 31.7657C332.671 31.8241 332.758 31.8766 332.841 31.935C332.924 31.9935 332.958 32.0197 333.013 32.0665C333.061 32.1029 333.088 32.1597 333.084 32.2183C333.084 32.3731 333.084 32.5279 333.084 32.6827C333.08 32.768 333.03 32.8455 332.951 32.8871C332.865 32.9368 332.773 32.9864 332.687 33.039C332.631 33.0693 332.576 33.1025 332.524 33.1383C332.448 33.1871 332.418 33.2797 332.453 33.3602C332.524 33.5471 332.598 33.734 332.671 33.918C332.684 33.9462 332.701 33.9728 332.721 33.9969C332.756 34.0583 332.829 34.0912 332.902 34.0787L333.327 34.0115H333.358C333.473 33.9876 333.592 34.0285 333.665 34.1166C333.745 34.2072 333.837 34.2889 333.921 34.3736C334.002 34.4493 334.033 34.5618 334.001 34.6657C333.967 34.7971 333.933 34.9256 333.905 35.057C333.877 35.1884 333.905 35.2556 334.037 35.3169C334.228 35.4045 334.422 35.4863 334.619 35.5681C334.709 35.6121 334.819 35.5843 334.874 35.5038C334.951 35.4133 335.019 35.3169 335.09 35.2118C335.243 35.0103 335.28 34.9898 335.542 35.0044H335.85C335.949 35.0062 336.04 35.0571 336.09 35.1388C336.151 35.2352 336.213 35.3344 336.277 35.4308C336.312 35.4798 336.351 35.5257 336.394 35.5681C336.433 35.6122 336.497 35.6286 336.554 35.609L337.169 35.3899C337.197 35.3899 337.222 35.3607 337.249 35.3461C337.314 35.3122 337.349 35.2429 337.336 35.1738C337.314 35.0395 337.289 34.9081 337.268 34.7766C337.265 34.7358 337.265 34.6948 337.268 34.654C337.257 34.587 337.284 34.5196 337.339 34.4758L337.671 34.1838C337.735 34.1237 337.828 34.1013 337.914 34.1254L338.345 34.2218H338.36C338.542 34.251 338.6 34.2218 338.668 34.0728C338.735 33.9239 338.834 33.7194 338.911 33.5413C338.937 33.4998 338.944 33.4499 338.93 33.4035C338.916 33.3571 338.882 33.3182 338.837 33.296C338.726 33.2171 338.615 33.1383 338.499 33.0682C338.383 33.0072 338.319 32.8858 338.335 32.7615C338.335 32.6214 338.335 32.4695 338.354 32.3439C338.356 32.2848 338.388 32.2303 338.44 32.1979C338.563 32.122 338.686 32.0519 338.806 31.9759C338.892 31.9361 338.961 31.8689 339 31.7861L338.997 31.7394ZM334.345 32.5162C334.345 32.1638 334.493 31.826 334.757 31.5776C335.02 31.3293 335.377 31.1909 335.748 31.1933C336.504 31.2167 337.106 31.8013 337.114 32.5191C337.149 33.0096 336.892 33.4774 336.45 33.7326C336.007 33.9877 335.452 33.9877 335.009 33.7326C334.567 33.4774 334.311 33.0096 334.345 32.5191V32.5162Z" fill="white"/>
<path d="M336.492 36.0046C336.528 36.0049 336.563 35.9979 336.596 35.9839L337.189 35.7617C337.222 35.7486 337.254 35.7317 337.284 35.7114C337.399 35.6446 337.461 35.514 337.441 35.3826L337.376 34.9797C337.373 34.9433 337.373 34.9066 337.376 34.8701C337.376 34.8316 337.376 34.8168 337.394 34.8079L337.669 34.5532L337.717 34.5058C337.742 34.4795 337.781 34.4713 337.815 34.4851L338.111 34.5532L338.221 34.5769C338.485 34.6243 338.606 34.5769 338.707 34.3488C338.808 34.1208 338.87 33.9845 338.944 33.8009C339.022 33.6513 338.97 33.4675 338.826 33.3803C338.716 33.2973 338.606 33.2174 338.491 33.1433C338.426 33.1092 338.389 33.0382 338.399 32.9656C338.399 32.8767 338.399 32.7849 338.399 32.696V32.5391C338.395 32.5296 338.395 32.5189 338.399 32.5094L338.755 32.2843C338.866 32.2259 338.953 32.1291 338.998 32.0118C339.001 31.9971 339.001 31.9821 338.998 31.9674V31.9141C339.001 31.8984 339.001 31.8824 338.998 31.8667L338.962 31.7601C338.927 31.6534 338.891 31.5468 338.853 31.4431C338.814 31.3395 338.796 31.2921 338.764 31.218C338.707 31.0635 338.55 30.9688 338.387 30.9899C338.31 30.9899 338.233 31.0136 338.153 31.0284L337.993 31.0551H337.883C337.87 31.0578 337.857 31.0578 337.844 31.0551C337.726 30.9396 337.601 30.8122 337.48 30.6819C337.48 30.6819 337.48 30.6523 337.48 30.6315L337.521 30.4538C337.539 30.3738 337.554 30.2968 337.571 30.2198C337.586 30.1518 337.592 30.0821 337.589 30.0125C337.582 29.9256 337.536 29.8465 337.465 29.7963C337.25 29.6553 337.017 29.5466 336.771 29.4734C336.639 29.4338 336.496 29.4841 336.418 29.5978L336.326 29.7192C336.267 29.7992 336.207 29.8792 336.154 29.9621C336.127 30.0116 336.073 30.0398 336.018 30.0332C335.917 30.0332 335.816 30.0332 335.721 30.0332H335.561C335.521 29.9819 335.483 29.9285 335.448 29.8733L335.356 29.7311C335.318 29.6748 335.282 29.6185 335.241 29.5623C335.16 29.4379 335.003 29.3862 334.864 29.4379C334.653 29.5119 334.44 29.586 334.232 29.6659C334.089 29.7209 334.003 29.867 334.025 30.0184C334.025 30.1013 334.048 30.1813 334.063 30.2613L334.081 30.3768C334.091 30.4267 334.098 30.4772 334.102 30.5279C334.108 30.5541 334.099 30.5817 334.078 30.599L333.995 30.6789C333.912 30.7559 333.826 30.8359 333.746 30.9189C333.719 30.9496 333.675 30.9613 333.636 30.9485L333.42 30.8981L333.188 30.8448C333.018 30.798 332.84 30.8841 332.77 31.0462C332.684 31.2269 332.601 31.4076 332.524 31.5912C332.432 31.7556 332.484 31.9636 332.643 32.0651C332.69 32.1036 332.741 32.1362 332.791 32.1718L332.886 32.2399L333.043 32.3643C333.057 32.3728 333.065 32.3896 333.061 32.4058V32.5065C333.061 32.6279 333.061 32.7494 333.061 32.8708C333.061 32.908 333.04 32.9422 333.008 32.9597L332.895 33.0248L332.747 33.1137C332.69 33.1492 332.634 33.1848 332.581 33.2262C332.454 33.3143 332.405 33.4773 332.462 33.6202C332.53 33.8068 332.601 33.9964 332.675 34.1859C332.69 34.2218 332.709 34.2556 332.732 34.2866C332.797 34.4033 332.929 34.4653 333.061 34.4407L333.467 34.3755H333.509C333.571 34.3587 333.637 34.3838 333.672 34.4377C333.728 34.5029 333.79 34.5651 333.853 34.6273L333.924 34.7013C333.966 34.7415 333.983 34.8023 333.965 34.8583C333.93 34.9916 333.897 35.1278 333.871 35.2611C333.809 35.437 333.902 35.6291 334.078 35.6906C334.265 35.7795 334.455 35.8624 334.645 35.9424C334.793 36.0166 334.973 35.9712 335.069 35.8358C335.128 35.7558 335.187 35.6758 335.244 35.5929L335.279 35.5455C335.392 35.3855 335.392 35.3855 335.576 35.3974H335.872C335.919 35.3951 335.962 35.4208 335.982 35.4625L336.044 35.5603C336.083 35.6284 336.124 35.6965 336.166 35.7617C336.204 35.8202 336.247 35.8748 336.296 35.9246C336.349 35.9744 336.419 36.0029 336.492 36.0046ZM337.773 34.183C337.675 34.1823 337.58 34.2207 337.509 34.2896L337.459 34.337L337.189 34.5888C337.105 34.663 337.062 34.7733 337.073 34.885C337.073 34.9294 337.073 34.9768 337.073 35.0212L337.139 35.427C337.139 35.427 337.139 35.427 337.121 35.4537L337.073 35.4833L336.48 35.7054C336.448 35.664 336.415 35.6255 336.388 35.584C336.362 35.5425 336.308 35.4566 336.273 35.3915L336.21 35.2908C336.137 35.1662 336.005 35.0879 335.86 35.0834H335.564C335.335 35.0303 335.1 35.1438 335 35.3559L334.965 35.4063C334.908 35.4833 334.855 35.5603 334.796 35.6314C334.736 35.7025 334.76 35.6699 334.722 35.6521C334.535 35.5751 334.351 35.4922 334.167 35.4033C334.148 35.3949 334.13 35.3839 334.114 35.3707C334.11 35.3482 334.11 35.3252 334.114 35.3026C334.14 35.1723 334.17 35.0419 334.203 34.9146C334.248 34.7598 334.205 34.5925 334.09 34.4792L334.016 34.4022C333.958 34.3468 333.904 34.2885 333.853 34.2274C333.745 34.0874 333.564 34.0256 333.393 34.0704L332.963 34.1415C332.963 34.1415 332.963 34.1415 332.933 34.1208C332.922 34.1051 332.912 34.0882 332.904 34.0704C332.833 33.8838 332.761 33.6972 332.693 33.5076C332.693 33.4899 332.693 33.478 332.714 33.4514C332.759 33.4164 332.807 33.3847 332.856 33.3566L332.999 33.2736L333.111 33.2055C333.23 33.1373 333.305 33.0132 333.31 32.8767C333.31 32.7523 333.31 32.6279 333.31 32.5065V32.4028C333.314 32.2989 333.269 32.1991 333.188 32.1333C333.134 32.0837 333.076 32.0372 333.016 31.9941L332.913 31.92L332.779 31.8252C332.717 31.7719 332.717 31.766 332.747 31.7008C332.827 31.5201 332.907 31.3424 332.993 31.1647C333.013 31.1232 333.022 31.1143 333.079 31.1262L333.307 31.1795L333.527 31.2269C333.664 31.262 333.811 31.2201 333.909 31.1173C333.989 31.0373 334.069 30.9603 334.152 30.8863L334.235 30.8063C334.316 30.7297 334.359 30.6211 334.351 30.5101C334.351 30.4509 334.351 30.3916 334.327 30.3353L334.306 30.2139C334.291 30.1425 334.281 30.0703 334.274 29.9977C334.274 29.9562 334.274 29.9503 334.292 29.9473C334.496 29.8673 334.704 29.7963 334.911 29.7222C334.926 29.7222 334.935 29.7222 334.953 29.7429C334.971 29.7637 335.024 29.8466 335.06 29.8999L335.152 30.0391L335.247 30.1872C335.303 30.2732 335.396 30.328 335.499 30.3353H335.662C335.76 30.3353 335.854 30.3353 335.958 30.3353C336.12 30.3511 336.277 30.2728 336.362 30.1339C336.415 30.0569 336.471 29.9799 336.531 29.9029L336.623 29.7785C336.623 29.7607 336.64 29.7578 336.661 29.7785C336.888 29.8448 337.104 29.9446 337.302 30.0747C337.29 30.1124 337.281 30.1511 337.275 30.1902C337.26 30.2643 337.242 30.3413 337.225 30.4183L337.183 30.6019C337.161 30.7073 337.189 30.8169 337.26 30.8981C337.385 31.0344 337.512 31.1647 337.646 31.2921C337.71 31.3445 337.791 31.3738 337.874 31.375C337.931 31.3719 337.987 31.365 338.043 31.3543L338.203 31.3276C338.274 31.3276 338.345 31.3009 338.417 31.295C338.488 31.2891 338.467 31.295 338.488 31.3424C338.509 31.3898 338.547 31.4787 338.571 31.5498L338.678 31.8637L338.707 31.9467C338.676 31.9866 338.637 32.019 338.592 32.0414L338.254 32.2695C338.163 32.3274 338.108 32.4261 338.105 32.5331V32.6931C338.105 32.779 338.105 32.8678 338.105 32.9537C338.085 33.1342 338.174 33.3096 338.331 33.401C338.44 33.4721 338.544 33.5461 338.648 33.6261C338.661 33.6356 338.673 33.6465 338.684 33.6587V33.7002C338.609 33.8779 338.535 34.0556 338.452 34.2304C338.423 34.2955 338.408 34.3074 338.405 34.3074C338.372 34.3133 338.339 34.3133 338.307 34.3074L338.188 34.2807L337.892 34.2155C337.854 34.1992 337.814 34.1882 337.773 34.183ZM335.727 34.183C336.325 34.1805 336.863 33.8192 337.091 33.2669C337.32 32.7146 337.193 32.0795 336.771 31.6564C336.499 31.382 336.131 31.2229 335.745 31.2121C335.348 31.2073 334.967 31.3613 334.685 31.6395C334.403 31.9178 334.244 32.2972 334.244 32.6931C334.235 33.0736 334.379 33.4418 334.645 33.715C334.924 34.0148 335.316 34.1854 335.727 34.1859V34.183ZM335.745 31.5172C336.052 31.5281 336.344 31.6563 336.56 31.8756C336.784 32.0975 336.91 32.3991 336.91 32.7138C336.91 33.3682 336.379 33.8986 335.724 33.8986C335.394 33.9015 335.079 33.7674 334.852 33.5284C334.643 33.3113 334.528 33.0208 334.532 32.7197C334.532 32.4024 334.659 32.0983 334.886 31.8756C335.112 31.6529 335.418 31.5302 335.736 31.5349L335.745 31.5172Z" fill="#D1D3D4"/>
<path d="M288.824 64.1601C288.759 63.9 288.696 63.637 288.628 63.3769C288.595 63.2394 288.554 63.1079 288.512 62.9733C288.467 62.801 288.309 62.6837 288.132 62.6923C287.923 62.6923 287.718 62.7222 287.51 62.7372C287.4 62.7476 287.288 62.7476 287.177 62.7372C287.096 62.7317 287.018 62.6991 286.957 62.6445C286.74 62.3994 286.538 62.1453 286.336 61.8882C286.267 61.7921 286.251 61.6669 286.294 61.5564C286.369 61.3113 286.449 61.0691 286.52 60.827C286.552 60.7305 286.569 60.6297 286.571 60.5281C286.572 60.4546 286.545 60.3835 286.494 60.3308C286.133 60.0493 285.732 59.8246 285.304 59.6642C285.177 59.6073 285.028 59.6471 284.945 59.7598C284.769 59.9631 284.588 60.1574 284.419 60.3577C284.306 60.5189 284.108 60.5975 283.916 60.558C283.649 60.5161 283.375 60.4892 283.108 60.4504C283.006 60.4389 282.917 60.3757 282.873 60.283C282.79 60.1305 282.712 59.984 282.629 59.8196C282.546 59.6552 282.489 59.5565 282.412 59.428C282.35 59.2891 282.193 59.2196 282.049 59.2666C281.663 59.3652 281.276 59.4669 280.896 59.5655C280.745 59.6093 280.646 59.755 280.661 59.9123C280.661 60.1215 280.694 60.3338 280.709 60.543C280.709 60.6417 280.709 60.7433 280.709 60.842C280.713 60.972 280.656 61.0965 280.554 61.1768C280.34 61.3471 280.123 61.5145 279.918 61.6939C279.795 61.8047 279.621 61.8381 279.466 61.7806C279.204 61.6999 278.943 61.6102 278.678 61.5295C278.501 61.4511 278.294 61.5294 278.211 61.7059C278.029 62.0128 277.854 62.3237 277.685 62.6385C277.623 62.7229 277.597 62.8295 277.614 62.9334C277.632 63.0373 277.691 63.1295 277.777 63.1886C277.908 63.3111 278.048 63.4187 278.179 63.5383C278.31 63.6579 278.366 63.7087 278.455 63.8014C278.535 63.8786 278.573 63.9901 278.556 64.1003C278.527 64.3813 278.497 64.6653 278.461 64.9463C278.443 65.1016 278.345 65.2357 278.203 65.299L277.718 65.5352C277.616 65.5839 277.516 65.6388 277.421 65.6996C277.281 65.7743 277.213 65.9388 277.26 66.0912C277.355 66.4439 277.453 66.7937 277.557 67.1434C277.576 67.1967 277.6 67.2478 277.629 67.2959C277.68 67.4124 277.8 67.4833 277.926 67.4723L278.666 67.4125H278.723C278.936 67.3752 279.15 67.4723 279.264 67.6576C279.386 67.834 279.528 67.9954 279.662 68.1628C279.792 68.3124 279.828 68.5225 279.754 68.7068C279.674 68.937 279.594 69.1702 279.525 69.4063C279.479 69.4963 279.473 69.6019 279.509 69.6966C279.544 69.7914 279.619 69.8663 279.713 69.9026C280.031 70.0909 280.352 70.2703 280.679 70.4436C280.827 70.5421 281.026 70.5066 281.131 70.3629C281.276 70.2105 281.41 70.0461 281.547 69.8846C281.844 69.5379 281.91 69.511 282.358 69.5857L282.882 69.6604C283.052 69.6763 283.202 69.7822 283.274 69.9384C283.366 70.1268 283.452 70.3151 283.551 70.5004C283.602 70.5959 283.663 70.6861 283.732 70.7695C283.792 70.857 283.901 70.8956 284.002 70.8651L285.102 70.5662C285.152 70.5499 285.2 70.5278 285.245 70.5004C285.361 70.4486 285.431 70.3286 285.42 70.2015L285.367 69.4661C285.362 69.3915 285.362 69.3166 285.367 69.2419C285.363 69.1185 285.418 69.0007 285.516 68.9251C285.727 68.7636 285.932 68.5992 286.14 68.4348C286.258 68.3355 286.421 68.3091 286.565 68.3661C286.797 68.4468 287.032 68.5185 287.264 68.5932C287.272 68.5945 287.281 68.5945 287.29 68.5932C287.588 68.6769 287.701 68.6471 287.858 68.372C288.016 68.097 288.2 67.7503 288.36 67.4334C288.411 67.3614 288.43 67.2719 288.413 67.1856C288.396 67.0992 288.345 67.0236 288.271 66.976C288.093 66.8146 287.912 66.6592 287.724 66.5127C287.533 66.3798 287.44 66.1436 287.489 65.9148C287.528 65.6637 287.555 65.4096 287.591 65.1555C287.6 65.0474 287.664 64.9517 287.76 64.9014L288.429 64.5517C288.582 64.4926 288.71 64.3802 288.789 64.2348L288.824 64.1601ZM280.661 64.8835C280.715 64.2394 281.022 63.6437 281.515 63.2292C282.009 62.8148 282.646 62.616 283.286 62.6774C284.587 62.8307 285.538 63.9879 285.441 65.302C285.322 66.6223 284.169 67.6011 282.855 67.4992C282.216 67.4522 281.623 67.1482 281.21 66.6559C280.797 66.1636 280.599 65.5246 280.661 64.8835Z" fill="white"/>
<path d="M284.163 71.2629C284.2 71.2621 284.238 71.2571 284.274 71.2479L284.574 71.1637L285.381 70.9383C285.436 70.921 285.488 70.8967 285.537 70.8662C285.716 70.7883 285.826 70.6045 285.81 70.4094L285.786 70.0878C285.786 69.9496 285.765 69.8083 285.756 69.6701C285.751 69.6001 285.751 69.5298 285.756 69.4597C285.751 69.3803 285.786 69.3036 285.849 69.2554C286.049 69.1071 286.241 68.9569 286.425 68.8046L286.479 68.7625C286.562 68.6899 286.68 68.6733 286.779 68.7204L287.28 68.8827L287.487 68.9488H287.517C287.655 69.0161 287.815 69.0218 287.957 68.9645C288.099 68.9073 288.211 68.7924 288.264 68.6483C288.462 68.3057 288.639 67.9631 288.774 67.6987C288.91 67.4859 288.854 67.2038 288.648 67.0585C288.438 66.8692 288.261 66.7159 288.09 66.5837C287.943 66.4863 287.87 66.3087 287.907 66.1359C287.931 65.9767 287.952 65.8204 287.973 65.6611L288.009 65.3606C288.014 65.2997 288.05 65.2459 288.105 65.2193L288.375 65.0751L288.777 64.8677C288.964 64.7922 289.118 64.6513 289.209 64.471C289.212 64.4561 289.212 64.4409 289.209 64.4259V64.3328C289.21 64.3158 289.21 64.2987 289.209 64.2817L289.149 64.0413C289.104 63.858 289.059 63.6746 289.011 63.4913C288.963 63.308 288.933 63.2148 288.888 63.0796C288.821 62.8448 288.604 62.6853 288.36 62.6919C288.219 62.6919 288.078 62.6919 287.94 62.719L287.727 62.737H287.64C287.565 62.7444 287.49 62.7444 287.415 62.737C287.37 62.7337 287.327 62.7192 287.289 62.6949C287.061 62.4335 286.848 62.166 286.668 61.9406C286.63 61.8812 286.624 61.8067 286.653 61.7423C286.683 61.6371 286.719 61.5289 286.752 61.4237C286.785 61.3185 286.839 61.1472 286.881 61.009C286.917 60.8992 286.936 60.7848 286.938 60.6694C286.939 60.5493 286.889 60.4345 286.8 60.3538C286.428 60.063 286.014 59.83 285.573 59.6626C285.386 59.5865 285.171 59.6427 285.045 59.8009C284.985 59.873 284.919 59.9451 284.856 60.0142C284.739 60.1465 284.625 60.2787 284.514 60.4139C284.434 60.5359 284.287 60.5956 284.145 60.5642C283.969 60.5362 283.792 60.5121 283.614 60.4921L283.314 60.456C283.26 60.4468 283.215 60.412 283.191 60.3629L283.047 60.0924L282.903 59.8219C282.846 59.7137 282.786 59.6055 282.723 59.5003C282.623 59.307 282.401 59.2104 282.192 59.2689C281.73 59.3831 281.358 59.4823 281.022 59.5695C280.805 59.6314 280.661 59.837 280.677 60.0623C280.68 60.207 280.69 60.3514 280.707 60.4951L280.725 60.7085C280.725 60.8046 280.725 60.9008 280.725 61.009C280.729 61.0938 280.692 61.1754 280.626 61.2284L280.485 61.3396C280.314 61.4748 280.143 61.61 279.978 61.7513C279.896 61.8237 279.781 61.8456 279.678 61.8084L279.291 61.6852L278.883 61.5559C278.638 61.4602 278.36 61.5652 278.238 61.7994C278.054 62.1119 277.877 62.4275 277.707 62.746C277.543 62.9829 277.597 63.3071 277.827 63.4793C277.905 63.5514 277.986 63.6205 278.07 63.6897L278.235 63.8309C278.328 63.9151 278.418 63.9992 278.505 64.0894C278.551 64.1322 278.574 64.1951 278.565 64.2577L278.547 64.441C278.523 64.6604 278.499 64.8827 278.469 65.1051C278.458 65.2122 278.39 65.305 278.292 65.3486L278.091 65.4447L277.791 65.583C277.688 65.6355 277.588 65.6937 277.491 65.7573C277.295 65.8683 277.202 66.1002 277.266 66.3162C277.362 66.6709 277.461 67.0225 277.566 67.3771C277.585 67.4361 277.612 67.4925 277.644 67.5454C277.724 67.7227 277.907 67.83 278.1 67.8129L278.847 67.7558H278.913C279.072 67.7239 279.234 67.7977 279.315 67.9391C279.405 68.0683 279.504 68.1855 279.615 68.3057L279.735 68.453C279.834 68.5628 279.859 68.72 279.801 68.8557C279.72 69.0931 279.642 69.3275 279.57 69.5679C279.513 69.6907 279.508 69.8315 279.557 69.9579C279.606 70.0843 279.703 70.1855 279.828 70.2381C280.128 70.4154 280.446 70.5927 280.806 70.7851C281.016 70.9145 281.289 70.8682 281.445 70.6769C281.565 70.5476 281.679 70.4154 281.79 70.2802L281.868 70.19C282.132 69.8895 282.15 69.8715 282.552 69.9255L283.08 70.0037C283.202 70.0135 283.31 70.088 283.362 70.199L283.455 70.3854C283.515 70.5146 283.578 70.6438 283.644 70.767C283.699 70.8739 283.766 70.9746 283.842 71.0675C283.911 71.1807 284.031 71.2534 284.163 71.2629ZM286.65 68.3959C286.519 68.3969 286.393 68.4437 286.293 68.5281L286.239 68.5702L285.666 69.018C285.532 69.1211 285.454 69.2814 285.456 69.4507C285.451 69.5308 285.451 69.6111 285.456 69.6911C285.456 69.8324 285.477 69.9706 285.486 70.1119L285.513 70.4304C285.52 70.5015 285.478 70.5683 285.411 70.5927C285.375 70.6155 285.337 70.6336 285.297 70.6468C285.03 70.7249 284.763 70.7971 284.493 70.8722L284.193 70.9563C284.16 70.9563 284.124 70.9714 284.076 70.9113C284.012 70.8341 283.955 70.7506 283.908 70.6618C283.845 70.5416 283.785 70.4154 283.725 70.2922L283.632 70.1029C283.537 69.9016 283.343 69.7648 283.122 69.7422L282.594 69.6641C282.087 69.595 281.97 69.64 281.64 70.0307L281.562 70.1209C281.451 70.2531 281.343 70.3823 281.226 70.5056C281.197 70.5509 281.15 70.5819 281.097 70.5911C281.044 70.6002 280.99 70.5866 280.947 70.5536C280.593 70.3673 280.275 70.19 279.981 70.0157C279.819 69.9195 279.804 69.8775 279.858 69.6881C279.927 69.4537 280.005 69.2223 280.086 68.9909C280.177 68.7565 280.132 68.4912 279.969 68.2997L279.846 68.1494C279.75 68.0352 279.657 67.9241 279.57 67.8008C279.422 67.5703 279.15 67.4517 278.88 67.5003H278.835L278.088 67.5604C278.018 67.5679 277.951 67.5272 277.926 67.4612C277.903 67.4218 277.883 67.3806 277.866 67.338C277.767 66.9864 277.668 66.6348 277.566 66.2832C277.534 66.1936 277.576 66.0944 277.662 66.0548C277.753 65.9969 277.847 65.9447 277.944 65.8985L278.223 65.7603L278.43 65.6611C278.618 65.5735 278.747 65.3951 278.772 65.1893C278.802 64.9669 278.826 64.7415 278.85 64.5161L278.871 64.3358C278.89 64.1836 278.836 64.0314 278.727 63.9241C278.634 63.8279 278.538 63.7377 278.427 63.6506L278.256 63.5033C278.178 63.4402 278.1 63.3741 278.028 63.305C277.884 63.1698 277.872 63.1036 277.962 62.9323C278.133 62.6318 278.31 62.3073 278.49 61.9977C278.514 61.9423 278.56 61.8992 278.617 61.8787C278.674 61.8582 278.736 61.8621 278.79 61.8895C278.925 61.9286 279.057 61.9737 279.192 62.0157L279.582 62.142C279.788 62.2155 280.018 62.1706 280.182 62.0248C280.344 61.8865 280.512 61.7543 280.68 61.622L280.821 61.5079C280.96 61.3988 281.039 61.2305 281.034 61.0541C281.034 60.9519 281.034 60.8467 281.034 60.7535C281.034 60.6604 281.034 60.6063 281.013 60.5311C281.013 60.3959 280.986 60.2607 280.986 60.1254C280.974 60.0367 281.027 59.9522 281.112 59.9241C281.445 59.8279 281.814 59.7287 282.273 59.6236C282.354 59.5967 282.442 59.6375 282.474 59.7167C282.537 59.8189 282.591 59.9211 282.648 60.0172L282.792 60.2877C282.84 60.3779 282.888 60.471 282.939 60.5612C283.007 60.6948 283.136 60.7868 283.284 60.8076L283.584 60.8437C283.758 60.8677 283.932 60.8888 284.103 60.9158C284.351 60.9634 284.604 60.8626 284.751 60.6574C284.859 60.5251 284.973 60.3989 285.087 60.2697L285.279 60.0533C285.322 59.9882 285.407 59.9651 285.477 59.9992C285.891 60.1555 286.278 60.3744 286.626 60.6484C286.636 60.6732 286.642 60.6996 286.644 60.7265C286.642 60.8115 286.627 60.8957 286.599 60.9759L286.473 61.3876C286.437 61.4928 286.404 61.601 286.371 61.7092C286.313 61.8681 286.339 62.0454 286.44 62.181C286.62 62.4094 286.836 62.6799 287.07 62.9474C287.158 63.0302 287.271 63.081 287.391 63.0916C287.485 63.1007 287.579 63.1007 287.673 63.0916H287.754L287.973 63.0736C288.105 63.0736 288.24 63.0495 288.372 63.0465C288.483 63.0418 288.582 63.1159 288.609 63.2238C288.651 63.3561 288.693 63.4883 288.726 63.6205C288.774 63.8039 288.819 63.9842 288.864 64.1675L288.918 64.3839V64.4259C288.849 64.5283 288.751 64.607 288.636 64.6513L288.231 64.8647L287.958 65.006C287.818 65.0787 287.724 65.2161 287.706 65.3726C287.706 65.4718 287.682 65.5679 287.667 65.6731C287.649 65.8294 287.628 65.9736 287.604 66.1389C287.552 66.4211 287.669 66.7076 287.904 66.8722C288.069 67.0014 288.243 67.1487 288.447 67.332C288.564 67.4372 288.573 67.4823 288.504 67.6145C288.375 67.873 288.204 68.2156 288.003 68.5491C287.88 68.7595 287.85 68.7715 287.598 68.7024L287.373 68.6303C287.208 68.5762 287.04 68.5251 286.878 68.468C286.807 68.4313 286.729 68.4069 286.65 68.3959ZM283.248 67.867C284.645 67.8684 285.789 66.7561 285.83 65.3574C285.87 63.9588 284.792 62.7819 283.398 62.7021C282.003 62.6224 280.799 63.6689 280.68 65.0631C280.605 65.7198 280.799 66.379 281.217 66.8903C281.66 67.455 282.318 67.8091 283.032 67.867C283.104 67.867 283.176 67.867 283.248 67.867ZM283.266 63.0015H283.467C284.497 63.1066 285.327 63.8939 285.488 64.9185C285.649 65.943 285.101 66.9477 284.153 67.3648C283.205 67.7819 282.095 67.5068 281.451 66.6949C281.084 66.2466 280.914 65.6692 280.977 65.0931C281.069 63.8987 282.07 62.9808 283.266 62.9955V63.0015Z" fill="#D1D3D4"/>
<path d="M273.001 33.6797C274.726 35.594 279.136 39.2608 288.19 39.3926L288.439 55.6386C288.439 55.6386 279.785 56.9777 273.001 50.9143V33.6797Z" fill="white"/>
<path d="M286.587 56.1511C287.293 56.1576 287.998 56.1174 288.698 56.0307C288.772 56.02 288.826 55.9553 288.824 55.8803L288.573 39.5648C288.571 39.484 288.507 39.419 288.426 39.4174C279.588 39.288 275.129 35.8071 273.26 33.7312C273.219 33.6841 273.154 33.6674 273.095 33.689C273.038 33.7122 273 33.7681 273 33.8304V51.1388C272.999 51.1816 273.018 51.2224 273.051 51.2501C277.818 55.5072 283.557 56.1511 286.587 56.1511ZM288.525 55.7509C287.424 55.8803 279.532 56.5933 273.299 51.0696V34.2216C275.327 36.3276 279.804 39.5648 288.277 39.7242L288.525 55.7509Z" fill="#231F20"/>
<path d="M286.362 53.8261C286.441 53.8261 286.507 53.7629 286.51 53.6828C286.511 53.601 286.449 53.5325 286.367 53.5277C283.435 53.472 280.552 52.753 277.933 51.4237C276.951 50.9263 276.041 50.2968 275.227 49.5524V38.4773C275.227 38.3949 275.161 38.3281 275.079 38.3281C274.997 38.3281 274.931 38.3949 274.931 38.4773V49.6151C274.931 49.6531 274.946 49.6897 274.972 49.7166C275.011 49.7554 278.727 53.5665 286.356 53.8261H286.362Z" fill="#D1D3D4"/>
<path d="M285.587 43.3655C285.669 43.3655 285.736 43.3062 285.736 43.2331C285.736 43.1599 285.669 43.1006 285.587 43.1006C285.566 43.1006 283.317 42.9629 282.109 42.2267C282.077 42.2066 282.037 42.1989 281.998 42.2054C281.959 42.2119 281.925 42.232 281.903 42.2611C281.857 42.3205 281.873 42.4018 281.939 42.4439C283.216 43.2225 285.473 43.3602 285.569 43.3655H285.587Z" fill="#D1D3D4"/>
<path d="M285.586 41.8167C285.667 41.8153 285.733 41.7585 285.736 41.6871C285.738 41.6518 285.723 41.6175 285.695 41.592C285.668 41.5666 285.629 41.5522 285.589 41.5522C285.568 41.5522 283.459 41.4888 282.111 40.6769C282.066 40.6505 282.009 40.647 281.961 40.6677C281.913 40.6884 281.881 40.7302 281.877 40.7774C281.873 40.8246 281.898 40.87 281.943 40.8964C283.363 41.7532 285.493 41.814 285.583 41.8167H285.586Z" fill="#D1D3D4"/>
<path d="M276.24 43.3642C276.306 43.365 276.366 43.3259 276.387 43.2675L276.844 42.0182C276.87 41.9687 276.862 41.91 276.825 41.8673C276.788 41.8246 276.728 41.8056 276.67 41.8184C276.613 41.8311 276.568 41.8735 276.556 41.9272L276.095 43.1764C276.069 43.251 276.111 43.3317 276.191 43.3585L276.24 43.3642Z" fill="#D1D3D4"/>
<path d="M332.824 15.082C332.824 15.082 332.299 19.0821 329.737 19.9404V28.6428C329.737 28.6428 331.666 27.7995 332.824 24.8947V15.082Z" fill="white"/>
<path d="M329.908 28.6383C329.929 28.6426 329.952 28.6426 329.974 28.6383C330.056 28.602 332.018 27.7319 333.208 24.7799C333.212 24.762 333.212 24.7434 333.208 24.7255V14.8423C333.208 14.7628 333.142 14.6975 333.059 14.6942C333.019 14.69 332.979 14.7014 332.947 14.7258C332.916 14.7502 332.896 14.7856 332.892 14.8241C332.892 14.8634 332.34 18.7702 329.845 19.592C329.781 19.6134 329.739 19.6699 329.737 19.734V28.4963C329.737 28.5477 329.765 28.5955 329.81 28.6232C329.839 28.6393 329.874 28.6447 329.908 28.6383ZM332.905 24.6862C331.993 26.9191 330.605 27.9162 330.065 28.2304V19.8368C331.7 19.2325 332.517 17.48 332.905 16.211V24.6862Z" fill="#231F20"/>
</g>
</g>
<defs>
<clipPath id="clip0">
<rect width="66" height="73.6154" fill="white" transform="translate(273 3.8457)"/>
</clipPath>
</defs>
</svg>
