<svg width="24" height="24" viewBox="0 0 24 24" fill="none" xmlns="http://www.w3.org/2000/svg">
<circle cx="12" cy="12" r="12" fill="white"/>
<path d="M6 10V16.5C6 16.6326 6.05268 16.7598 6.14645 16.8536C6.24021 16.9473 6.36739 17 6.5 17H17.5C17.6326 17 17.7598 16.9473 17.8536 16.8536C17.9473 16.7598 18 16.6326 18 16.5V10L12 6L6 10Z" stroke="#505A73" stroke-width="1.25" stroke-linecap="round" stroke-linejoin="round"/>
<path d="M18 10L13.0909 13.5H10.9091L6 10" stroke="#505A73" stroke-width="1.25" stroke-linecap="round" stroke-linejoin="round"/>
</svg>
