<svg width="25" height="24" viewBox="0 0 25 24" fill="none" xmlns="http://www.w3.org/2000/svg">
<circle opacity="0.3" cx="12" cy="12" r="10" fill="#E59D9C"/>
<circle cx="11.9987" cy="12.0007" r="6.66667" fill="#E45040"/>
</svg>
